{
	"id": "a4f5c6f7-cce4-4b4b-b117-71dd02c7fcf3",
	"name": "Postman Tests",
	"values": [
		{
			"key": "base_url",
			"value": "https://reqres.in/",
			"enabled": true
		}
	],
	"_postman_variable_scope": "environment",
	"_postman_exported_at": "2020-10-16T20:50:53.049Z",
	"_postman_exported_using": "Postman/7.34.0"
}